<?xml version="1.0" encoding="utf-8"?>
<!-- Generator: Adobe Illustrator 18.1.0, SVG Export Plug-In . SVG Version: 6.00 Build 0)  -->
<svg version="1.1" id="Layer_1" xmlns="http://www.w3.org/2000/svg" xmlns:xlink="http://www.w3.org/1999/xlink" x="0px" y="0px"
	 viewBox="73 -74.5 172 172" enable-background="new 73 -74.5 172 172" xml:space="preserve">
<g>
	
		<circle opacity="0.2" fill="#FFFFFF" stroke="#231F20" stroke-miterlimit="10" enable-background="new    " cx="159" cy="11.5" r="82.6"/>
	<path fill="#231F20" d="M184-6.9c-0.8,0-1.2,0-1.6,0c-4.4,0-8.9,0-13.3,0c-0.9,0-1.7,0-1.7-1.3c0.1-3.4-0.1-6.9,0.1-10.3
		c0.2-3.1,1.6-4.5,4.7-4.7c3.3-0.2,6.7-0.2,10.1-0.2c1,0,1.6-0.2,1.6-1.4c0-5.3,0-10.6-0.1-15.9c0-0.4-0.8-1.2-1.2-1.2
		c-6.7,0.1-13.4-0.3-19.9,0.5c-9.7,1.1-15.5,6.9-16.9,16.6c-0.7,5.2-0.4,10.6-0.6,15.9c0,0.6-0.1,1.2-0.1,2c-3.7,0-7.2,0-10.9,0
		c0,0.9,0,1.7,0,2.5c0,4.5,0.1,9,0,13.5c-0.1,2,0.5,2.8,2.6,2.6c2.8-0.2,5.6,0,8.5,0c0,0.7,0.1,1,0.1,1.2c0,16.6,0,33.2,0,49.8
		c0,1.7,0.5,2.2,2.2,2.2c5.9-0.1,11.7-0.1,17.6,0c1.9,0,2.4-0.4,2.4-2.3c-0.1-16.4,0-32.8,0-49.2c0-0.5,0.1-1.1,0.1-1.8
		c4.4,0,8.7,0,13,0c1.3,0,1.8-0.4,1.9-1.7c0.1-1.8,0.3-3.6,0.5-5.3C183.2,0.9,183.6-2.9,184-6.9z"/>
	<circle fill="none" stroke="#231F20" stroke-width="6" stroke-miterlimit="10" cx="159" cy="11.5" r="82.6"/>
</g>
</svg>
