<?xml version="1.0" encoding="utf-8"?>
<!-- Generator: Adobe Illustrator 18.1.0, SVG Export Plug-In . SVG Version: 6.00 Build 0)  -->
<svg version="1.1" id="Layer_1" xmlns="http://www.w3.org/2000/svg" xmlns:xlink="http://www.w3.org/1999/xlink" x="0px" y="0px"
	 viewBox="222 -9.1 172 172" enable-background="new 222 -9.1 172 172" xml:space="preserve">
<g>
	<circle opacity="0.2" enable-background="new    " cx="308" cy="76.9" r="82.6"/>
	<circle fill="none" stroke="#FFFFFF" stroke-width="6" stroke-miterlimit="10" cx="308" cy="76.9" r="82.6"/>
</g>
<path fill="#FFFFFF" d="M364.5,57.8l-55.7-38.8c-0.3-0.2-0.8-0.2-1.1,0L252,57.8c-0.4,0.2-0.5,0.7-0.4,1.1s0.5,0.7,1,0.7h13.7v63.8
	c0,0.6,0.4,1,1,1h82c0.6,0,1-0.4,1-1V59.7h13.7c0.4,0,0.8-0.3,1-0.7S364.8,58.1,364.5,57.8z M287.5,124.1V80.5
	c0-0.2,0.2-0.4,0.5-0.4h40c0.3,0,0.5,0.2,0.5,0.4v43.6c0,0.2-0.2,0.4-0.5,0.4h-40C287.7,124.5,287.5,124.3,287.5,124.1z"/>
</svg>
